…
The data is publicly available and can be loaded into R as

``` r
mf_data <- readr::read_csv("https://www.mortality.org/Public/STMF/Outputs/stmf.csv", skip=2)
mf_data
```

    ## # A tibble: 40,461 x 19
    ##    CountryCode  Year  Week Sex   D0_14 D15_64 D65_74 D75_84  D85p DTotal   R0_14
    ##    <chr>       <dbl> <dbl> <chr> <dbl>  <dbl>  <dbl>  <dbl> <dbl>  <dbl>   <dbl>
    ##  1 AUT          2000     1 m      6.28   184.   211.   237.  176.    814 4.67e-4
    ##  2 AUT          2000     1 f      5.35   101.   141.   335.  471.   1053 4.18e-4
    ##  3 AUT          2000     1 b     11.5    285.   355.   573.  643.   1867 4.38e-4
    ##  4 AUT          2000     2 m      6.58   192.   217.   244.  180.    840 4.89e-4
    ##  5 AUT          2000     2 f      5.81   109.   141.   335.  471.   1062 4.54e-4
    ##  6 AUT          2000     2 b     12.2    302.   359.   580.  650.   1902 4.64e-4
    ##  7 AUT          2000     3 m      7.73   226.   220.   248.  183.    886 5.75e-4
    ##  8 AUT          2000     3 f      6.11   115.   152.   361.  507.   1141 4.77e-4
    ##  9 AUT          2000     3 b     13.8    341.   378.   610.  684.   2027 5.25e-4
    ## 10 AUT          2000     4 m      7.30   214.   217.   245.  181.    864 5.43e-4
    ## # … with 40,451 more rows, and 8 more variables: R15_64 <dbl>, R65_74 <dbl>,
    ## #   R75_84 <dbl>, R85p <dbl>, RTotal <dbl>, Split <dbl>, SplitSex <dbl>,
    ## #   Forecast <dbl>
…
      ESP = "Spain",
      FIN = "Finland",
      GBRTENW = "England & Wales",
      ISL = "Iceland",
      NLD = "Netherlands",
      NOR = "Norway",
      PRT = "Portugal",
      SWE = "Sweden",
      USA = "United States")
  ) %>%
  select(age_group, country, year, sex, week, death_count, death_rate)
mf_data
```

    ## # A tibble: 1,456,596 x 7
    ##    age_group country  year sex     week death_count death_rate
    ##    <chr>     <chr>   <dbl> <chr>  <dbl>       <dbl>      <dbl>
    ##  1 0-14      Austria  2000 male       1        6.28   0.000467
    ##  2 0-14      Austria  2000 female     1        5.35   0.000418
    ##  3 0-14      Austria  2000 both       1       11.5    0.000438
    ##  4 0-14      Austria  2000 male       2        6.58   0.000489
    ##  5 0-14      Austria  2000 female     2        5.81   0.000454
    ##  6 0-14      Austria  2000 both       2       12.2    0.000464
    ##  7 0-14      Austria  2000 male       3        7.73   0.000575
    ##  8 0-14      Austria  2000 female     3        6.11   0.000477
    ##  9 0-14      Austria  2000 both       3       13.8    0.000525
    ## 10 0-14      Austria  2000 male       4        7.30   0.000543
    ## # … with 1,456,586 more rows
…
